<?xml version="1.0" encoding="iso-8859-1"?>
<!-- Generator: Adobe Illustrator 19.0.0, SVG Export Plug-In . SVG Version: 6.00 Build 0)  -->
<svg version="1.1" id="Capa_1" xmlns="http://www.w3.org/2000/svg" xmlns:xlink="http://www.w3.org/1999/xlink" x="0px" y="0px"
	 viewBox="0 0 512 512" style="enable-background:new 0 0 512 512;" xml:space="preserve">
<g>
	<g>
		<path d="M256,0c-31.497,0-62.359,5.714-91.726,16.987c-2.331,0.896-4.197,2.706-5.161,5.015c-0.965,2.309-0.942,4.91,0.064,7.195
			c3.579,8.16,5.394,16.791,5.394,25.659c0,35.291-28.709,64-64,64c-5.23,0-10.651-0.718-16.119-2.13
			c-2.784-0.727-5.76-0.087-8.005,1.714c-2.249,1.801-3.52,4.558-3.424,7.438c0.018,0.443,0.046,0.887,0.078,1.335
			c0.018,0.261,0.041,0.521,0.041,0.786c0,32.937-25.701,60.928-58.51,63.717c-3.959,0.338-7.25,3.195-8.137,7.072
			C2.185,217.655,0,236.905,0,256c0,141.161,114.843,256,256,256c141.161,0,256-114.839,256-256C512,114.843,397.161,0,256,0z
			 M256,493.714C124.923,493.714,18.286,387.077,18.286,256c0-15.639,1.582-31.401,4.704-46.935
			c36.091-6.176,64.137-36.215,67.986-72.517c3.227,0.398,6.432,0.594,9.595,0.594c45.371,0,82.286-36.914,82.286-82.286
			c0-8.151-1.189-16.146-3.547-23.872c24.704-8.43,50.459-12.699,76.69-12.699c131.077,0,237.714,106.638,237.714,237.714
			S387.077,493.714,256,493.714z"/>
	</g>
</g>
<g>
	<g>
		<path d="M265.143,374.857c-20.165,0-36.571,16.407-36.571,36.571S244.978,448,265.143,448c20.165,0,36.571-16.407,36.571-36.571
			S285.307,374.857,265.143,374.857z M265.143,429.714c-10.085,0-18.286-8.201-18.286-18.286s8.201-18.286,18.286-18.286
			c10.085,0,18.286,8.201,18.286,18.286S275.227,429.714,265.143,429.714z"/>
	</g>
</g>
<g>
	<g>
		<path d="M379.429,192c-17.641,0-32,14.354-32,32c0,17.646,14.359,32,32,32s32-14.354,32-32
			C411.429,206.354,397.07,192,379.429,192z M379.429,237.714c-7.561,0-13.714-6.153-13.714-13.714s6.153-13.714,13.714-13.714
			s13.714,6.153,13.714,13.714S386.99,237.714,379.429,237.714z"/>
	</g>
</g>
<g>
	<g>
		<path d="M256,118.857c-20.165,0-36.571,16.407-36.571,36.571S235.835,192,256,192s36.571-16.407,36.571-36.571
			S276.165,118.857,256,118.857z M256,173.714c-10.085,0-18.286-8.201-18.286-18.286s8.201-18.286,18.286-18.286
			s18.286,8.201,18.286,18.286S266.085,173.714,256,173.714z"/>
	</g>
</g>
<g>
	<g>
		<path d="M132.571,201.143c-17.646,0-32,14.354-32,32c0,17.646,14.354,32,32,32c17.646,0,32-14.354,32-32
			C164.571,215.497,150.217,201.143,132.571,201.143z M132.571,246.857c-7.561,0-13.714-6.153-13.714-13.714
			c0-7.561,6.153-13.714,13.714-13.714c7.561,0,13.714,6.153,13.714,13.714C146.286,240.704,140.133,246.857,132.571,246.857z"/>
	</g>
</g>
<g>
	<g>
		<path d="M146.286,329.143c-20.165,0-36.571,16.407-36.571,36.571c0,20.165,16.407,36.571,36.571,36.571
			c20.165,0,36.571-16.407,36.571-36.571C182.857,345.55,166.45,329.143,146.286,329.143z M146.286,384
			C136.201,384,128,375.799,128,365.714s8.201-18.286,18.286-18.286c10.085,0,18.286,8.201,18.286,18.286S156.37,384,146.286,384z"
			/>
	</g>
</g>
<g>
	<g>
		<path d="M256,228.571c-20.165,0-36.571,16.407-36.571,36.571c0,20.165,16.407,36.571,36.571,36.571s36.571-16.407,36.571-36.571
			C292.571,244.978,276.165,228.571,256,228.571z M256,283.429c-10.085,0-18.286-8.201-18.286-18.286
			c0-10.085,8.201-18.286,18.286-18.286s18.286,8.201,18.286,18.286C274.286,275.227,266.085,283.429,256,283.429z"/>
	</g>
</g>
<g>
	<g>
		<path d="M365.714,82.286c-20.165,0-36.571,16.407-36.571,36.571c0,20.165,16.407,36.571,36.571,36.571
			c20.165,0,36.571-16.407,36.571-36.571C402.286,98.693,385.879,82.286,365.714,82.286z M365.714,137.143
			c-10.085,0-18.286-8.201-18.286-18.286c0-10.085,8.201-18.286,18.286-18.286S384,108.773,384,118.857
			C384,128.942,375.799,137.143,365.714,137.143z"/>
	</g>
</g>
<g>
	<g>
		<path d="M384,310.857c-20.165,0-36.571,16.407-36.571,36.571S363.835,384,384,384c20.165,0,36.571-16.407,36.571-36.571
			S404.165,310.857,384,310.857z M384,365.714c-10.085,0-18.286-8.201-18.286-18.286s8.201-18.286,18.286-18.286
			c10.085,0,18.286,8.201,18.286,18.286S394.085,365.714,384,365.714z"/>
	</g>
</g>
<g>
</g>
<g>
</g>
<g>
</g>
<g>
</g>
<g>
</g>
<g>
</g>
<g>
</g>
<g>
</g>
<g>
</g>
<g>
</g>
<g>
</g>
<g>
</g>
<g>
</g>
<g>
</g>
<g>
</g>
</svg>
